{
  "include": ["./src/**/*"],
  "compilerOptions": {
    "baseUrl": "./src",
    "paths": {
      "@/*": ["./src/*"],
      "@store/*": ["./src/store/*"],
      "@components/*": ["./src/components/*"],
    }
  }
}